Análise de uma replicação
…
Qual a diferença na amostra

iats %>% 
    group_by(referrer, sex) %>% 
    summarise(media = mean(d_art), n = n())

## `summarise()` has grouped output by 'referrer'. You can override using the
## `.groups` argument.

## # A tibble: 72 × 4
## # Groups:   referrer [36]
##    referrer sex    media     n
##    <chr>    <ord>  <dbl> <int>
##  1 abington m     0.0808    24
##  2 abington f     0.454     53
##  3 brasilia m     0.400     48
##  4 brasilia f     0.570     65
##  5 charles  m     0.340     22
##  6 charles  f     0.735     58
##  7 conncoll m     0.359     29
##  8 conncoll f     0.578     57
##  9 csun     m     0.314     32
## 10 csun     f     0.320    144
## # ℹ 62 more rows
…
